<?xml version="1.0"?>
<COLLADA xmlns:xsi="http://www.w3.org/2001/XMLSchema-instance" xmlns:xsd="http://www.w3.org/2001/XMLSchema" version="1.4.1" xmlns="http://www.collada.org/2005/11/COLLADASchema">
  <asset>
    <created>2020-09-13T19:23:04.7677605-04:00</created>
    <modified>2020-09-13T19:23:04.7677605-04:00</modified>
  </asset>
  <library_images>
    <image id="itemKouraRed">
      <init_from>./itemKouraRed.png</init_from>
    </image>
  </library_images>
  <library_materials>
    <material id="mat_kouraRed_mat_id" name="mat_kouraRed_mat">
      <instance_effect url="#mat_kouraRed_eff_id" />
    </material>
  </library_materials>
  <library_effects>
    <effect id="mat_kouraRed_eff_id" name="mat_kouraRed_eff">
      <profile_COMMON>
        <newparam sid="mat_kouraRed_surf">
          <surface type="2D">
            <init_from>itemKouraRed</init_from>
            <format>PNG</format>
          </surface>
        </newparam>
        <newparam sid="mat_kouraRed_samp">
          <sampler2D>
            <source>mat_kouraRed_surf</source>
            <wrap_s>MIRROR</wrap_s>
            <wrap_t>MIRROR</wrap_t>
            <minfilter>LINEAR_MIPMAP_NEAREST</minfilter>
            <magfilter>LINEAR</magfilter>
            <mipfilter>LINEAR</mipfilter>
          </sampler2D>
        </newparam>
        <technique sid="mat_kouraRed_tech">
          <phong>
            <diffuse>
              <texture texture="mat_kouraRed_samp" texcoord="uv" />
            </diffuse>
          </phong>
        </technique>
      </profile_COMMON>
    </effect>
  </library_effects>
  <library_geometries>
    <geometry id="_0_0_geo_id" name="_0_0">
      <mesh>
        <source id="_0_0_Position_id" name="_0_0_Position">
          <float_array id="_0_0_Position_array_id" count="273">-1.95751 -2.53632 -1.94235 -3.0276 -0.97604 -1.50037 -1.05576 -1.90658 -3.25818 3.57628E-06 -3.647 0.00203266 -2.20644 -2.74286 0.00203266 3.57628E-06 -3.2627 -2.1097 3.57628E-06 -3.19666 1.86362 -2.07124 -2.39323 1.79917 -3.00022 -0.942886 1.21075 1.33537 -1.70868 2.85905 2.07124 -2.39323 1.79917 3.57628E-06 -2.27283 2.85905 1.33537 -1.70868 2.85905 3.57628E-06 -2.05425 3.48287 1.21957 -1.58395 3.35774 -1.21956 -1.58395 3.35774 -2.02759 -0.41747 2.80601 -1.33536 -1.70868 2.85905 3.57628E-06 -2.05425 3.48287 1.21957 -1.58395 3.35774 1.52099 -0.164241 3.61119 -2.02759 -0.41747 2.80601 -1.37404 0.0567353 -3.73424 1.37405 0.0567353 -3.73424 -1.05576 -1.90658 -3.25818 1.05576 -1.90658 -3.25818 -1.37404 0.0567353 -3.73424 1.05576 -1.90658 -3.25818 3.02761 -0.97604 -1.50037 1.95751 -2.53632 -1.94235 2.20645 -2.74286 0.00203266 3.00023 -0.942886 1.21075 2.02759 -0.41747 2.80601 1.37405 0.0567353 -3.73424 -1.33536 -1.70868 2.85905 3.57628E-06 -2.27283 2.85905 1.52099 -0.164241 3.61119 2.02759 -0.41747 2.80601 -1.52099 -0.164241 3.61119 -1.52099 -0.164241 3.61119 -1.21956 -1.58395 3.35774 -1.08207 0.8624 -3.38375 -2.99223 -0.266268 -2.9571 -2.60306 0.104699 -2.39682 -1.31972 0.697939 -4.06764 -2.60088 -0.992495 -2.9377 -4.00591 -0.832983 0 -3.27933 -0.437264 0 -3.53125 -1.57639 0 -2.44781 2.38713 -0.000816788 -1.45574 2.34677 -2.46441 -2.60306 0.104699 -2.39682 -3.27933 -0.437264 0 -2.51296 0.0863261 2.52857 -1.31766 2.3025 2.53196 -1.00546 0.855072 3.34389 1.31766 2.3025 2.53196 1.00547 0.855072 3.34389 -2.71193 -0.130196 3.08621 -2.51296 0.0863261 2.52857 -2.52913 -0.978885 3.0809 -1.08207 0.8624 -3.38375 2.99223 -0.266268 -2.9571 2.60307 0.104699 -2.39682 4.00591 -0.832983 0 3.27934 -0.437264 0 3.53126 -1.57639 0 2.60089 -0.992495 -2.9377 2.44782 2.38713 -0.000816788 2.60307 0.104699 -2.39682 1.45575 2.34677 -2.46441 3.74161E-06 3.51985 -1.23163 -1.35766 3.32251 0.00236239 3.74161E-06 3.53284 1.1734 3.27934 -0.437264 0 2.51296 0.0863261 2.52857 1.27635 0.646978 4.00353 2.71194 -0.130196 3.08621 2.52913 -0.978885 3.0809 2.51296 0.0863261 2.52857 1.11497 -0.17766 -3.98463 0.998834 -0.19586 4.06451 1.35767 3.32251 0.00236244 -1.27635 0.646978 4.00353 -1.00546 0.855072 3.34389 -1.11497 -0.17766 -3.98463 1.00547 0.855072 3.34389 -0.998829 -0.19586 4.06451 1.08208 0.8624 -3.38375 1.08208 0.8624 -3.38375 1.31973 0.697939 -4.06764</float_array>
          <technique_common>
            <accessor source="#_0_0_Position_array_id" count="91" stride="3">
              <param name="X" type="float" />
              <param name="Y" type="float" />
              <param name="Z" type="float" />
            </accessor>
          </technique_common>
        </source>
        <source id="_0_0_Normal_id" name="_0_0_Normal">
          <float_array id="_0_0_Normal_array_id" count="273">-0.605078 -0.680459 -0.413347 -0.83477 -0.400377 -0.377964 -0.381902 -0.483182 -0.787836 0 -0.999584 0.0288424 -0.625065 -0.780341 0.019019 0 -0.916063 -0.401034 0 -0.880901 0.4733 -0.643617 -0.586959 0.491159 -0.879311 -0.402599 0.254414 0.430214 -0.594063 0.67971 0.643616 -0.586959 0.491159 0 -0.943744 0.330678 0.554335 -0.767728 0.321412 0 -0.693997 0.719978 0.612961 -0.506969 0.60602 -0.612961 -0.50697 0.60602 -0.820834 -0.358155 0.444924 -0.554335 -0.767728 0.321412 0 -0.693997 0.719978 0.612961 -0.506969 0.60602 0.346166 -0.197236 0.917206 -0.724217 -0.300325 0.620738 -0.38474 -0.27595 -0.88081 0.384741 -0.275951 -0.88081 -0.381902 -0.483182 -0.787836 0.381902 -0.483182 -0.787836 -0.38474 -0.27595 -0.88081 0.381902 -0.483182 -0.787836 0.834771 -0.400376 -0.377964 0.605078 -0.680459 -0.413348 0.625066 -0.780341 0.0190192 0.87931 -0.4026 0.254415 0.724216 -0.300326 0.620738 0.384741 -0.275951 -0.88081 -0.430213 -0.594063 0.67971 0 -0.732976 0.680254 0.346166 -0.197236 0.917206 0.820834 -0.358155 0.444924 -0.346166 -0.197236 0.917206 -0.346166 -0.197236 0.917206 -0.612961 -0.50697 0.60602 -0.360913 0.919955 -0.153054 -0.778287 0.488186 -0.394898 -0.549081 0.83045 -0.0941413 -0.404585 0.363089 -0.839331 -0.209064 -0.769915 -0.602929 -0.957153 0.289205 0.0148129 -0.554347 0.832272 0.00484856 -0.557668 -0.829943 0.0141747 -0.857457 0.514281 0.0168236 -0.463886 0.658179 -0.592967 -0.829475 0.342649 -0.441092 -0.957153 0.289205 0.0148129 -0.805353 0.35427 0.475288 -0.447675 0.650791 0.613235 -0.298517 0.417137 0.85842 0.447676 0.650791 0.613235 0.298517 0.417137 0.85842 -0.794394 0.396303 0.460306 -0.522756 0.849173 0.0750415 -0.0995611 -0.830999 0.547292 -0.328704 0.436095 -0.83772 0.778287 0.488186 -0.394898 0.549081 0.83045 -0.0941413 0.957153 0.289205 0.0148128 0.554347 0.832271 0.00484862 0.557669 -0.829943 0.0141747 0.209064 -0.769915 -0.602929 0.857457 0.51428 0.0168236 0.829475 0.342649 -0.441092 0.463887 0.658179 -0.592967 0 0.956676 -0.291156 -0.476318 0.879195 0.0117281 0 0.955944 0.29355 0.957153 0.289205 0.0148128 0.522756 0.849173 0.0750415 0.441176 0.55163 0.707862 0.794394 0.396303 0.460306 0.0995612 -0.830999 0.547292 0.805353 0.35427 0.475288 -0.12419 -0.847681 -0.515765 0.0151389 -0.72041 0.693383 0.476318 0.879195 0.0117282 -0.441175 0.55163 0.707862 -0.251969 0.947779 0.195517 0.12419 -0.847681 -0.515765 0.251969 0.947779 0.195517 -0.0151389 -0.72041 0.693383 0.328704 0.436095 -0.83772 0.360913 0.919954 -0.153054 0.404586 0.363089 -0.839331</float_array>
          <technique_common>
            <accessor source="#_0_0_Normal_array_id" count="91" stride="3">
              <param name="X" type="float" />
              <param name="Y" type="float" />
              <param name="Z" type="float" />
            </accessor>
          </technique_common>
        </source>
        <source id="_0_0_TexCoord0_id" name="_0_0_TexCoord0">
          <float_array id="_0_0_TexCoord0_array_id" count="182">0.75979 0.249008 0.678767 0.473902 0.934659 0.301377 0.504565 0.0434127 0.508167 0.215923 0.763708 0.0563166 0.251363 0.0543964 0.262899 0.2517 0.344268 0.468062 0.143761 0.286611 0.262899 0.2517 0.143761 0.0551494 0.143761 0.286611 0.0658753 0.249883 0.0658753 0.317475 0.0658753 0.317475 0.143761 0.478305 0.143761 0.286611 0.250335 0.776085 0.370782 0.816447 0.41581 0.955821 0.143761 0.478305 0.0728543 1.01853 0.424921 1.01892 0.104186 0.763936 0.393589 0.763936 0.988659 0.500696 0.934659 0.301377 0.678767 0.473902 0.75979 0.249008 0.508167 0.215923 0.344268 0.468062 0.143761 0.478305 0.988659 0.500696 0.143761 0.286611 0.143761 0.0551494 0.0658753 0.476495 0.143761 0.478305 0.0658753 0.476495 0.0848602 0.955821 0.12989 0.816447 0.0367912 1.00181 0.0389839 0.998718 0.0389839 0.998718 0.0389839 0.998718 0.0389839 0.998718 0.0389839 0.998718 0.0389839 0.998718 0.0389839 0.998718 0.717433 0.993265 0.857203 1.33034 0.619408 1.32811 0.520196 0.992422 0.632627 0.646723 0.87087 0.651668 0.888868 0.509963 1.13171 0.651668 1.11371 0.509963 0.0389839 0.998718 0.0389839 0.998718 0.0389839 0.998718 0.867648 1.48597 0.0389839 0.998718 0.0389839 0.998718 0.0389839 0.998718 0.0389839 0.998718 0.0389839 0.998718 0.0389839 0.998718 1.28515 0.993265 1.38317 1.32811 1.14538 1.33034 1.00129 1.12005 0.877742 0.993111 1.00129 0.872644 1.48238 0.992422 0.0389839 0.998718 0.0389839 0.998718 0.0389839 0.998718 0.0389839 0.998718 1.36995 0.646723 0.0389839 0.998718 0.0389839 0.998718 1.12484 0.993111 0.0389839 0.998718 0.0389839 0.998718 0.0389839 0.998718 0.0389839 0.998718 0.0389839 0.998718 1.13493 1.48597 0.0389839 0.998718 0.0389839 0.998718</float_array>
          <technique_common>
            <accessor source="#_0_0_TexCoord0_array_id" count="91" stride="2">
              <param name="S" type="float" />
              <param name="T" type="float" />
            </accessor>
          </technique_common>
        </source>
        <source id="_0_0_Color_id" name="_0_0_Color">
          <float_array id="_0_0_Color_array_id" count="364">1 1 1 1 0.5411765 0.5411765 0.5411765 1 1 1 1 1 1 1 1 1 1 1 1 1 1 1 1 1 1 1 1 1 1 1 1 1 0.5411765 0.5411765 0.5411765 1 0.909804 0.909804 0.909804 1 1 1 1 1 0.9333334 0.9333334 0.9333334 1 0.909804 0.909804 0.909804 1 1 1 1 1 0.9803922 0.9803922 0.9803922 1 0.9803922 0.9803922 0.9803922 1 0.5411765 0.5411765 0.5411765 1 0.909804 0.909804 0.909804 1 1 1 1 1 0.9803922 0.9803922 0.9803922 1 0.5411765 0.5411765 0.5411765 1 0.5411765 0.5411765 0.5411765 1 0.5411765 0.5411765 0.5411765 1 0.5411765 0.5411765 0.5411765 1 1 1 1 1 1 1 1 1 0.5411765 0.5411765 0.5411765 1 1 1 1 1 0.5411765 0.5411765 0.5411765 1 1 1 1 1 1 1 1 1 0.5411765 0.5411765 0.5411765 1 0.5411765 0.5411765 0.5411765 1 0.5411765 0.5411765 0.5411765 1 0.909804 0.909804 0.909804 1 0.9333334 0.9333334 0.9333334 1 0.5411765 0.5411765 0.5411765 1 0.5411765 0.5411765 0.5411765 1 0.5411765 0.5411765 0.5411765 1 0.5411765 0.5411765 0.5411765 1 0.9803922 0.9803922 0.9803922 1 0.5019608 0.5019608 0.5019608 1 0.9137256 0.9137256 0.9137256 1 0.5294118 0.5294118 0.5294118 1 0.9137256 0.9137256 0.9137256 1 0.8509805 0.8509805 0.8509805 1 0.9137256 0.9137256 0.9137256 1 0.4745098 0.4745098 0.4745098 1 0.9058824 0.9058824 0.9058824 1 1 1 1 1 1 1 1 1 0.7411765 0.7411765 0.7411765 1 0.6862745 0.6862745 0.6862745 1 0.7372549 0.7372549 0.7372549 1 1 1 1 1 0.7058824 0.7058824 0.7058824 1 1 1 1 1 0.7019608 0.7019608 0.7019608 1 0.9137256 0.9137256 0.9137256 1 0.5254902 0.5254902 0.5254902 1 0.8470589 0.8470589 0.8470589 1 0.7137255 0.7137255 0.7137255 1 0.9137256 0.9137256 0.9137256 1 0.5372549 0.5372549 0.5372549 1 0.9137256 0.9137256 0.9137256 1 0.4745098 0.4745098 0.4745098 1 0.9019608 0.9019608 0.9019608 1 0.8509805 0.8509805 0.8509805 1 1 1 1 1 0.7490196 0.7490196 0.7490196 1 1 1 1 1 1 1 1 1 1 1 1 1 1 1 1 1 0.6862745 0.6862745 0.6862745 1 0.5254902 0.5254902 0.5254902 1 0.9137256 0.9137256 0.9137256 1 0.9137256 0.9137256 0.9137256 1 0.8470589 0.8470589 0.8470589 1 0.7372549 0.7372549 0.7372549 1 0.7372549 0.7372549 0.7372549 1 0.8078432 0.8078432 0.8078432 1 1 1 1 1 0.9137256 0.9137256 0.9137256 1 0.4941177 0.4941177 0.4941177 1 0.7450981 0.7450981 0.7450981 1 0.4901961 0.4901961 0.4901961 1 0.8392158 0.8392158 0.8392158 1 0.7058824 0.7058824 0.7058824 1 0.4941177 0.4941177 0.4941177 1 0.9137256 0.9137256 0.9137256 1</float_array>
          <technique_common>
            <accessor source="#_0_0_Color_array_id" count="91" stride="4">
              <param name="R" type="float" />
              <param name="G" type="float" />
              <param name="B" type="float" />
              <param name="A" type="float" />
            </accessor>
          </technique_common>
        </source>
        <vertices id="_0_0_vtx_id">
          <input semantic="POSITION" source="#_0_0_Position_id" />
          <input semantic="NORMAL" source="#_0_0_Normal_id" />
        </vertices>
        <triangles material="Mdl_0_Mtl_mat_kouraRed" count="118">
          <input semantic="VERTEX" source="#_0_0_vtx_id" offset="0" />
          <input semantic="TEXCOORD" source="#_0_0_TexCoord0_id" offset="0" set="0" />
          <input semantic="COLOR" source="#_0_0_Color_id" offset="0" />
          <p>0 1 2 0 4 1 0 5 4 2 5 0 27 5 2 27 29 5 27 28 29 28 27 33 28 31 30 29 28 30 29 30 5 3 5 30 3 4 5 3 6 4 3 30 6 30 10 6 30 31 10 32 10 31 9 10 32 9 6 10 9 35 6 6 35 34 6 34 7 4 6 7 8 4 7 7 21 8 34 21 7 11 12 13 11 13 17 17 13 15 15 16 17 38 16 15 12 14 13 37 14 12 36 14 37 18 19 20 18 20 39 18 39 40 22 23 24 23 25 24 1 26 2 8 1 4 41 42 43 41 44 42 44 41 90 85 44 90 80 85 90 80 81 85 80 78 81 67 78 80 67 66 78 66 67 64 66 64 77 78 66 77 77 76 78 75 76 77 65 75 77 64 65 77 63 65 64 62 63 64 67 62 64 67 90 62 80 90 67 41 89 90 62 90 89 62 89 63 42 44 45 45 48 42 45 60 48 45 85 60 45 44 85 85 87 60 81 87 85 87 81 83 87 83 60 60 83 58 60 58 46 48 60 46 48 46 42 46 47 42 59 47 46 58 59 46 58 83 59 59 83 84 84 83 86 83 76 86 81 76 83 78 76 81 86 76 75 47 43 42 49 50 51 52 49 51 53 49 52 49 53 54 49 54 72 72 50 49 72 71 50 71 72 73 71 73 82 82 70 71 82 68 70 82 56 68 82 73 56 73 54 56 72 54 73 54 55 56 54 53 55 55 57 56 56 57 79 68 56 79 74 68 79 69 68 74 68 69 70 88 70 69 50 70 88 50 71 70 61 51 50 61 50 88</p>
        </triangles>
      </mesh>
    </geometry>
  </library_geometries>
  <library_visual_scenes>
    <visual_scene id="itemKouraRed_00_id" name="itemKouraRed_00">
      <node id="_0_0_node_id" name="_0_0_node" type="NODE">
        <matrix>1 0 0 0 0 1 0 0 0 0 1 0 0 0 0 1</matrix>
        <instance_geometry url="#_0_0_geo_id">
          <bind_material>
            <technique_common>
              <instance_material symbol="Mdl_0_Mtl_mat_kouraRed" target="#mat_kouraRed_mat_id" />
            </technique_common>
          </bind_material>
        </instance_geometry>
      </node>
    </visual_scene>
  </library_visual_scenes>
  <scene>
    <instance_visual_scene url="#itemKouraRed_00_id" />
  </scene>
</COLLADA>