%YAML 1.1
%TAG !u! tag:unity3d.com,2011:
--- !u!114 &11400000
MonoBehaviour:
  m_ObjectHideFlags: 0
  m_CorrespondingSourceObject: {fileID: 0}
  m_PrefabInstance: {fileID: 0}
  m_PrefabAsset: {fileID: 0}
  m_GameObject: {fileID: 0}
  m_Enabled: 1
  m_EditorHideFlags: 0
  m_Script: {fileID: 11500000, guid: 3789ef1268a34d2468d08894dc97825b, type: 3}
  m_Name: CoinData
  m_EditorClassIdentifier: 
  ID: Coin
  ItemName: Coin
  ItemSprite: {fileID: 21300000, guid: b1f7dad0b228f4f488c6a123109645ea, type: 3}
  Points: 10
  ItemPickupSound: {fileID: 8300000, guid: 8d6b712d75fadaa489fae61698e734b2, type: 3}
  UIEvent: {fileID: 11400000, guid: 29bca65d8ae1f8240ab21412983aec29, type: 2}
