# Created by Metasequoia

newmtl kosiB
Ka 0.60000 0.60000 0.60000
Kd 0.80000 0.80000 0.80000
Ks 0.00000 0.00000 0.00000
Ns 5.00000
map_Kd kosiB.png

newmtl hatshade
Ka 0.60000 0.60000 0.60000
Kd 0.80000 0.80000 0.80000
Ks 0.00000 0.00000 0.00000
Ns 5.00000
map_Kd hatshade.png

newmtl kata
Ka 0.60000 0.60000 0.60000
Kd 0.80000 0.80000 0.80000
Ks 0.00000 0.00000 0.00000
Ns 5.00000
map_Kd kata.png

newmtl muneA
Ka 0.60000 0.60000 0.60000
Kd 0.80000 0.80000 0.80000
Ks 0.00000 0.00000 0.00000
Ns 5.00000
map_Kd muneA.png

newmtl innerA
Ka 0.60000 0.60000 0.60000
Kd 0.80000 0.80000 0.80000
Ks 0.00000 0.00000 0.00000
Ns 5.00000
map_Kd innerA.png

newmtl eye
Ka 0.60000 0.60000 0.60000
Kd 0.80000 0.80000 0.80000
Ks 0.00000 0.00000 0.00000
Ns 5.00000
map_Kd eye.png

newmtl hair
Ka 0.60000 0.60000 0.60000
Kd 0.80000 0.80000 0.80000
Ks 0.00000 0.00000 0.00000
Ns 5.00000
map_Kd hair.png

newmtl ling
Ka 0.60000 0.60000 0.60000
Kd 0.80000 0.80000 0.80000
Ks 0.00000 0.00000 0.00000
Ns 5.00000
map_Kd ling.png

newmtl mouth1
Ka 0.60000 0.60000 0.60000
Kd 0.80000 0.80000 0.80000
Ks 0.00000 0.00000 0.00000
Ns 5.00000
map_Kd mouth1.png

newmtl ear
Ka 0.60000 0.60000 0.60000
Kd 0.80000 0.80000 0.80000
Ks 0.00000 0.00000 0.00000
Ns 5.00000
map_Kd ear.png

newmtl nose
Ka 0.60000 0.60000 0.60000
Kd 0.80000 0.80000 0.80000
Ks 0.00000 0.00000 0.00000
Ns 5.00000
map_Kd nose.png

newmtl nose2
Ka 0.60000 0.60000 0.60000
Kd 0.80000 0.80000 0.80000
Ks 0.00000 0.00000 0.00000
Ns 5.00000
map_Kd nose2.png

newmtl neck_inner
Ka 0.60000 0.60000 0.60000
Kd 0.80000 0.80000 0.80000
Ks 0.00000 0.00000 0.00000
Ns 5.00000
map_Kd neck_inner.png

newmtl kutu
Ka 0.60000 0.60000 0.60000
Kd 0.80000 0.80000 0.80000
Ks 0.00000 0.00000 0.00000
Ns 5.00000
map_Kd kutu.png

newmtl footA
Ka 0.60000 0.60000 0.60000
Kd 0.80000 0.80000 0.80000
Ks 0.00000 0.00000 0.00000
Ns 5.00000
map_Kd footA.png

newmtl boots
Ka 0.60000 0.60000 0.60000
Kd 0.80000 0.80000 0.80000
Ks 0.00000 0.00000 0.00000
Ns 5.00000
map_Kd boots.png

newmtl boot_front
Ka 0.60000 0.60000 0.60000
Kd 0.80000 0.80000 0.80000
Ks 0.00000 0.00000 0.00000
Ns 5.00000
map_Kd boot_front.png

newmtl belt
Ka 0.60000 0.60000 0.60000
Kd 0.80000 0.80000 0.80000
Ks 0.00000 0.00000 0.00000
Ns 5.00000
map_Kd belt.png

newmtl backl
Ka 0.60000 0.60000 0.60000
Kd 0.80000 0.80000 0.80000
Ks 0.00000 0.00000 0.00000
Ns 5.00000
map_Kd backl.png

newmtl gloveA
Ka 0.60000 0.60000 0.60000
Kd 0.80000 0.80000 0.80000
Ks 0.00000 0.00000 0.00000
Ns 5.00000
map_Kd gloveA.png

newmtl gloveB
Ka 0.60000 0.60000 0.60000
Kd 0.80000 0.80000 0.80000
Ks 0.00000 0.00000 0.00000
Ns 5.00000
map_Kd gloveB.png

newmtl hand
Ka 0.60000 0.60000 0.60000
Kd 0.80000 0.80000 0.80000
Ks 0.00000 0.00000 0.00000
Ns 5.00000
map_Kd hand.png

newmtl arm_grove
Ka 0.60000 0.60000 0.60000
Kd 0.80000 0.80000 0.80000
Ks 0.00000 0.00000 0.00000
Ns 5.00000
map_Kd arm_grove.png

newmtl mat1
Ka 0.60000 0.60000 0.60000
Kd 0.80000 0.80000 0.80000
Ks 0.00000 0.00000 0.00000
Ns 5.00000
map_Kd grade.jpg

