MadeOf Wood

PhongEnvironment
{
	DiffuseMap C:/Users/Luis/Desktop/characters/vector/models/vectoreyesv1_d.tga
	NormalMap C:/Users/Luis/Desktop/characters/vector/models/vectoreyes_n.tga
	SpecularMap C:/Users/Luis/Desktop/characters/vector/models/vectoreyesv1_g.tga
	UseSpecular
	SpecularExponent 256
	SpecularColor 1 1 1
	SpecularIntensity 10
}

