MadeOf Wood

PhongEnvironment
{
	DiffuseMap C:/Users/Luis/Desktop/characters/vector/models/vectorupperbodyv1_d.tga
	NormalMap C:/Users/Luis/Desktop/characters/vector/models/vectorupperbody_n.tga
	SpecularMap C:/Users/Luis/Desktop/characters/vector/models/vectorupperbody_s.tga
	UseSpecular
	SpecularExponent 256
	SpecularColor 1 1 1
	SpecularIntensity 0.638594
	Fresnel 3
}

