# 3ds Max Wavefront OBJ Exporter v0.97b - (c)2007 guruware
# File Created: 28.10.2015 16:50:25

mtllib greatfairysword.mtl

#
# object node_0101D857
#

v  9.6850 -7.1339 -6.9370
v  11.0157 -7.3150 -6.2087
v  8.8189 -9.5984 -4.9567
v  10.9724 -4.1772 -7.5276
v  7.6693 -11.9213 -4.5669
v  11.5197 -2.2165 -9.1732
v  7.9449 -9.7559 -6.0157
v  10.0945 -4.3346 -8.5906
v  9.2756 -7.6260 -8.3189
v  3.5039 -3.5079 -1.7520
v  1.5315 -2.7953 0.0630
v  2.6024 -4.0079 -1.0276
v  3.1378 -1.9055 -1.3937
v  3.8976 -5.6220 -2.3858
v  6.6693 -4.3346 -3.5591
v  5.4409 -4.5354 -3.2795
v  4.2441 -1.6496 -2.6378
v  6.2520 -5.9803 -4.2756
v  5.9134 -3.3504 -3.8425
v  7.6850 -6.3976 -4.8504
v  8.2874 -4.8819 -5.5709
v  2.8031 0.4134 -1.4606
v  7.0984 -3.8504 -5.2835
v  5.5866 -1.3661 -4.4055
v  8.1299 -8.0118 -5.5236
v  9.3701 -4.8780 -7.0079
v  4.0276 -0.4094 -2.7362
v  7.5709 -9.1260 -4.8976
v  7.0197 -9.7638 -4.3504
v  9.7520 -3.6299 -7.5039
v  9.8386 -2.6535 -7.7244
v  2.9055 -3.6142 -2.4803
v  2.0906 -4.0984 -1.6457
v  0.6457 -2.9528 -1.0118
v  2.2520 -2.0630 -2.4685
v  4.9213 -4.6299 -3.9134
v  5.4094 -4.5591 -5.0906
v  3.6417 -1.7559 -3.3622
v  1.9173 0.2559 -2.5315
v  7.1575 -6.4921 -5.4882
v  5.3898 -3.4409 -4.4764
v  7.7598 -4.9764 -6.2087
v  3.5197 -0.5000 -3.3543
v  -11.4528 8.8386 9.0512
v  -10.7205 9.5630 6.5157
v  -9.8346 9.7205 7.5906
v  -12.3386 8.6811 7.9803
v  -11.9921 6.3543 8.0394
v  -11.1102 6.5118 9.1102
v  -13.0866 12.3898 8.9685
v  -17.8032 13.1102 12.7480
v  -14.7756 8.1339 10.9882
# 52 vertices

vn 0.2900 -0.6593 -0.6937
vn 0.4132 -0.3480 -0.8415
vn 0.8656 -0.4612 -0.1953
vn 0.8790 -0.4256 -0.2148
vn 0.4292 -0.5394 -0.7245
vn 0.4444 -0.5029 -0.7414
vn 0.8252 -0.5631 -0.0440
vn 0.9487 -0.2518 -0.1914
vn 0.6551 -0.0955 0.7495
vn 0.6750 -0.0107 0.7378
vn 0.6568 -0.1017 0.7472
vn 0.4768 -0.0866 0.8748
vn 0.5672 -0.1378 0.8120
vn 0.2694 -0.6055 0.7489
vn 0.6565 0.3668 0.6592
vn 0.5939 -0.2033 0.7784
vn 0.7593 0.6300 0.1627
vn 0.2658 -0.4141 0.8706
vn 0.6797 0.6301 0.3753
vn 0.2374 -0.4287 0.8717
vn 0.6666 0.6536 0.3584
vn 0.7286 0.1246 0.6735
vn 0.2050 -0.4749 0.8558
vn 0.6646 0.6795 0.3108
vn 0.7379 0.2939 0.6075
vn 0.7865 0.2850 0.5479
vn 0.2883 -0.2998 0.9094
vn 0.6423 0.5930 0.4856
vn 0.1252 0.3816 0.9158
vn 0.1276 0.3858 0.9137
vn 0.6377 0.6007 0.4821
vn 0.2771 -0.3038 0.9115
vn 0.7655 0.1826 0.6170
vn 0.7686 0.1829 0.6130
vn 0.1953 0.4041 0.8936
vn 0.2322 0.5100 0.8283
vn 0.3193 0.0010 0.9477
vn 0.1621 0.3212 0.9330
vn 0.1127 0.2093 0.9713
vn 0.5037 0.4686 0.7258
vn -0.5803 -0.3167 -0.7503
vn -0.5779 -0.3209 -0.7504
vn -0.5772 -0.2372 -0.7814
vn -0.6539 -0.3545 -0.6684
vn -0.7399 -0.3072 -0.5985
vn -0.5866 -0.7566 -0.2888
vn -0.6068 -0.4164 -0.6771
vn -0.5581 0.1511 -0.8159
vn -0.5228 -0.0984 -0.8468
vn -0.7314 -0.5917 -0.3390
vn -0.0958 0.4779 -0.8732
vn -0.7361 -0.6019 -0.3097
vn -0.3163 0.4524 -0.8338
vn -0.3060 0.4799 -0.8223
vn -0.4714 -0.0403 -0.8810
vn -0.7211 -0.6384 -0.2690
vn -0.2614 0.5165 -0.8154
vn -0.4831 0.0756 -0.8723
vn -0.4123 0.0701 -0.9084
vn -0.4661 -0.0398 -0.8838
vn -0.7805 -0.4904 -0.3876
vn -0.4268 0.4013 -0.8104
vn -0.9166 0.1956 -0.3487
vn -0.9152 0.1988 -0.3507
vn -0.4251 0.4123 -0.8058
vn -0.7840 -0.4929 -0.3774
vn -0.8851 0.2110 -0.4149
vn -0.8282 0.3222 -0.4586
vn -0.8543 -0.2095 -0.4756
vn -0.9177 0.1318 -0.3748
vn -0.9509 0.0145 -0.3092
vn -0.6684 0.2578 -0.6978
vn 0.3574 -0.9202 -0.1597
vn 0.3569 -0.9204 -0.1599
vn 0.7599 0.0968 -0.6428
vn 0.7614 0.0958 -0.6411
vn -0.7605 -0.0923 0.6427
vn -0.7618 -0.0914 0.6413
vn -0.3609 0.9183 0.1629
vn -0.6152 0.0848 -0.7838
vn -0.6863 0.0548 -0.7252
vn -0.7372 -0.2229 -0.6378
vn -0.7588 -0.1292 -0.6383
vn 0.5035 0.0008 0.8640
vn 0.4865 0.0937 0.8686
vn 0.6236 0.3037 0.7203
vn 0.5575 0.2747 0.7834
# 87 vertex normals

vt 0.6900 0.0200 0.0000
vt 0.6700 0.0300 0.0000
vt 0.6100 0.7500 0.0000
vt 0.6600 0.9500 0.0000
vt 0.6900 0.8100 0.0000
vt 0.5200 0.9500 0.0000
vt 0.7300 0.6200 0.0000
vt 0.5200 0.4700 0.0000
vt 0.5800 0.5500 0.0000
vt 0.6200 0.3900 0.0000
vt 0.5900 0.2800 0.0000
vt 0.5200 0.0200 0.0000
vt 0.6700 0.1600 0.0000
vt 0.7700 0.0200 0.0000
vt 0.7700 0.1400 0.0000
vt 0.8400 0.1700 0.0000
vt 0.9800 0.0200 0.0000
vt 0.5600 0.9500 0.0000
vt 0.6400 0.9700 0.0000
vt 0.9800 0.1300 0.0000
vt 0.9700 0.1700 0.0000
vt 0.9700 0.0800 0.0000
vt 0.9800 0.1700 0.0000
vt 0.9400 0.1300 0.0000
vt 0.9200 0.0800 0.0000
vt 0.9200 0.1700 0.0000
vt 0.9400 0.1700 0.0000
# 27 texture coords

g node_0101D857
usemtl material_025DC38B
s off
f 1/1/1 2/2/1 3/2/1 
f 1/1/2 4/2/2 2/2/2 
f 1/1/3 3/2/3 5/2/3 
f 1/1/4 6/2/4 4/2/4 
f 1/1/5 5/2/5 7/2/5 
f 1/1/6 8/2/6 6/2/6 
f 1/1/7 7/2/7 9/2/7 
f 1/1/8 9/2/8 8/2/8 
f 10/3/9 11/4/9 12/5/9 
f 10/3/10 13/6/10 11/4/10 
f 10/3/11 12/5/11 14/7/11 
f 10/3/12 15/8/12 13/6/12 
f 10/3/13 14/7/13 16/9/13 
f 10/3/14 16/9/14 15/8/14 
f 15/8/15 17/3/15 13/6/15 
f 14/7/16 18/10/16 16/9/16 
f 15/8/17 19/9/17 17/3/17 
f 15/8/18 16/9/18 20/11/18 
f 15/8/19 21/11/19 19/9/19 
f 15/8/20 20/11/20 2/12/20 
f 15/8/21 2/12/21 21/11/21 
f 13/6/22 17/3/22 22/4/22 
f 16/9/23 18/10/23 20/11/23 
f 19/9/24 21/11/24 23/10/24 
f 19/9/25 24/7/25 17/3/25 
f 19/9/26 23/10/26 24/7/26 
f 2/12/27 20/11/27 25/13/27 
f 2/12/28 26/13/28 21/11/28 
f 2/12/29 25/13/29 3/14/29 
f 2/12/30 4/14/30 26/13/30 
f 21/11/31 26/13/31 23/10/31 
f 20/11/32 18/10/32 25/13/32 
f 22/4/33 17/3/33 27/5/33 
f 27/5/34 17/3/34 24/7/34 
f 3/14/35 25/13/35 28/15/35 
f 3/14/36 28/15/36 29/16/36 
f 3/14/37 29/16/37 5/17/37 
f 4/14/38 30/15/38 26/13/38 
f 4/14/39 31/16/39 30/15/39 
f 4/14/40 6/17/40 31/16/40 
f 32/3/41 33/5/41 34/4/41 
f 32/3/42 14/7/42 33/5/42 
f 32/3/43 34/4/43 35/6/43 
f 32/3/44 36/9/44 14/7/44 
f 32/3/45 35/6/45 37/8/45 
f 32/3/46 37/8/46 36/9/46 
f 14/7/47 36/9/47 18/10/47 
f 35/6/48 38/3/48 37/8/48 
f 35/6/49 39/4/49 38/3/49 
f 37/8/50 40/11/50 36/9/50 
f 37/8/51 38/3/51 41/9/51 
f 37/8/52 9/12/52 40/11/52 
f 37/8/53 41/9/53 42/11/53 
f 37/8/54 42/11/54 9/12/54 
f 39/4/55 43/5/55 38/3/55 
f 36/9/56 40/11/56 18/10/56 
f 41/9/57 23/10/57 42/11/57 
f 41/9/58 38/3/58 24/7/58 
f 41/9/59 24/7/59 23/10/59 
f 24/7/60 38/3/60 43/5/60 
f 9/12/61 25/13/61 40/11/61 
f 9/12/62 42/11/62 26/13/62 
f 9/12/63 7/14/63 25/13/63 
f 9/12/64 26/13/64 8/14/64 
f 42/11/65 23/10/65 26/13/65 
f 40/11/66 25/13/66 18/10/66 
f 7/14/67 28/15/67 25/13/67 
f 7/14/68 29/16/68 28/15/68 
f 7/14/69 5/17/69 29/16/69 
f 8/14/70 26/13/70 30/15/70 
f 8/14/71 30/15/71 31/16/71 
f 8/14/72 31/16/72 6/17/72 
f 44/18/73 45/19/73 46/19/73 
f 44/18/74 47/18/74 45/19/74 
f 44/18/75 48/19/75 47/18/75 
f 44/18/76 49/19/76 48/19/76 
f 35/18/77 22/19/77 39/19/77 
f 35/18/78 13/18/78 22/19/78 
f 35/18/79 11/19/79 13/18/79 
f 35/18/79 34/19/79 11/19/79 
f 50/20/80 47/21/80 51/22/80 
f 50/20/81 45/23/81 47/21/81 
f 52/24/82 51/25/82 47/26/82 
f 52/24/83 47/26/83 48/27/83 
f 52/20/84 44/21/84 51/22/84 
f 52/20/85 49/23/85 44/21/85 
f 50/24/86 51/25/86 44/26/86 
f 50/24/87 44/26/87 46/27/87 
# 0 polygons - 88 triangles

#
# object node_01109B15
#

v  9.7677 -7.1929 -6.9921
v  9.2835 -7.9370 -8.2835
v  8.9252 -8.6496 -6.0866
v  11.1220 -8.4921 -8.6024
v  11.0236 -7.6260 -6.1693
v  9.4685 -7.4685 -8.5039
v  11.7835 -8.3740 -7.7992
v  10.2008 -5.4370 -7.6102
v  11.2126 -7.1575 -6.3937
v  8.6142 -10.5591 -5.5472
v  9.1496 -10.0472 -6.9685
v  9.8740 -12.0984 -6.3622
v  10.0236 -9.8898 -5.9055
v  10.9331 -5.5472 -9.1024
v  11.8110 -5.3898 -8.0394
v  11.2008 -4.0394 -8.6417
v  12.8386 -4.6299 -9.9055
v  14.9567 -10.7126 -10.0748
v  14.4882 -9.8228 -10.5000
v  13.9685 -11.1378 -9.8780
v  11.4291 -7.6890 -8.2913
v  10.9803 -8.8150 -7.7559
v  14.2953 -10.8307 -10.8740
v  17.5512 -11.9567 -12.7087
v  17.4724 -13.1693 -13.1496
v  16.9567 -13.4567 -12.0000
v  18.1339 -13.0512 -12.3465
# 27 vertices

vn -0.8581 0.5127 0.0264
vn 0.1572 0.8290 -0.5367
vn -0.2716 0.6165 0.7390
vn -0.4988 -0.8299 0.2500
vn 0.4342 0.8782 -0.2006
vn -0.9496 0.2822 0.1365
vn -0.2230 -0.7801 0.5846
vn -0.3608 0.3876 0.8483
vn -0.7935 -0.4125 -0.4475
vn -0.8919 -0.1970 -0.4070
vn 0.3343 -0.2125 0.9182
vn -0.9847 0.1266 -0.1195
vn 0.2440 0.0052 0.9698
vn -0.1018 0.2858 0.9529
vn -0.2910 -0.4926 -0.8202
vn 0.8062 -0.2965 0.5119
vn -0.1664 -0.1754 -0.9703
vn 0.9323 0.0204 0.3610
vn -0.6874 0.3211 -0.6515
vn -0.8658 0.4269 -0.2610
vn 0.4451 0.5248 0.7256
vn 0.0192 0.5848 0.8110
vn -0.4978 0.3330 -0.8008
vn 0.6284 0.5356 0.5641
vn 0.4610 -0.8506 -0.2530
vn 0.4600 -0.8509 -0.2537
vn 0.7748 -0.0578 -0.6296
vn 0.7739 -0.0574 -0.6307
vn 0.7640 0.0806 -0.6401
vn 0.3687 -0.9140 -0.1691
vn 0.7129 0.5704 0.4080
vn 0.3359 -0.3820 0.8610
vn 0.6951 0.6205 0.3632
vn 0.2801 -0.4257 0.8604
vn -0.3013 0.4423 -0.8447
vn -0.3339 0.3835 -0.8611
vn -0.7128 -0.5695 -0.4094
vn -0.7171 -0.6028 -0.3500
vn -0.3489 0.3840 -0.8549
vn -0.3703 0.3386 -0.8650
vn -0.7157 -0.5308 -0.4538
vn -0.7227 -0.5572 -0.4089
vn 0.3314 -0.3680 0.8688
vn 0.3708 -0.3369 0.8654
vn 0.7155 0.5311 0.4539
vn 0.7031 0.5721 0.4224
vn 0.2963 -0.9494 -0.1044
vn 0.7452 0.1846 -0.6408
# 48 vertex normals

vt 0.5200 0.9800 0.0000
vt 0.6100 0.9800 0.0000
vt 0.7800 0.6700 0.0000
vt 0.8600 0.5000 0.0000
vt 1.0000 0.6700 0.0000
vt 0.7800 0.2000 0.0000
vt 0.7200 0.4400 0.0000
vt 0.9700 0.2000 0.0000
vt 1.1400 0.5000 0.0000
vt 1.0300 0.2000 0.0000
vt 0.9800 0.9100 0.0000
vt 0.7500 0.9100 0.0000
vt 0.7500 0.8100 0.0000
vt 0.9800 0.8100 0.0000
vt 0.9200 0.9100 0.0000
vt 0.9200 0.8100 0.0000
vt 0.7200 0.8100 0.0000
vt 0.7200 0.9100 0.0000
vt 0.9800 0.7300 0.0000
vt 0.8900 0.7300 0.0000
# 20 texture coords

g node_01109B15
usemtl material_025DC38B
s off
f 53/28/88 54/29/88 55/29/88 
f 53/28/89 56/29/89 54/29/89 
f 53/28/90 55/29/90 57/29/90 
f 53/28/91 58/29/91 56/29/91 
f 53/28/92 57/29/92 59/29/92 
f 53/28/93 60/29/93 58/29/93 
f 53/28/94 59/29/94 61/29/94 
f 53/28/95 61/29/95 60/29/95 
f 62/30/96 63/31/96 64/32/96 
f 62/30/97 54/33/97 63/31/97 
f 62/30/98 64/32/98 65/31/98 
f 62/30/99 55/34/99 54/33/99 
f 62/30/100 65/31/100 57/33/100 
f 62/30/101 57/33/101 55/34/101 
f 63/31/102 54/33/102 56/35/102 
f 65/31/103 59/35/103 57/33/103 
f 56/35/104 58/33/104 66/31/104 
f 59/35/105 67/31/105 61/33/105 
f 58/33/106 68/30/106 66/31/106 
f 58/33/107 60/34/107 68/30/107 
f 61/33/108 67/31/108 68/30/108 
f 61/33/109 68/30/109 60/34/109 
f 66/31/110 68/30/110 69/32/110 
f 69/32/111 68/30/111 67/31/111 
f 56/35/112 65/36/112 63/31/112 
f 56/35/113 59/37/113 65/36/113 
f 56/35/114 67/36/114 59/37/114 
f 56/35/115 66/31/115 67/36/115 
f 63/31/116 65/36/116 64/32/116 
f 66/31/117 69/32/117 67/36/117 
f 59/38/118 70/39/118 71/40/118 
f 59/38/119 72/40/119 70/39/119 
f 59/38/120 71/40/120 73/41/120 
f 59/38/121 74/41/121 72/40/121 
f 56/38/122 73/41/122 71/40/122 
f 56/38/123 71/40/123 75/39/123 
f 56/38/124 75/39/124 72/40/124 
f 56/38/125 72/40/125 74/41/125 
f 75/42/126 71/43/126 76/44/126 
f 75/42/127 76/44/127 77/45/127 
f 75/42/128 77/45/128 78/44/128 
f 75/42/129 78/44/129 72/43/129 
f 70/42/130 72/43/130 78/44/130 
f 70/42/131 78/44/131 79/45/131 
f 70/42/132 79/45/132 76/44/132 
f 70/42/133 76/44/133 71/43/133 
f 77/46/134 79/46/134 78/47/134 
f 77/46/135 76/47/135 79/46/135 
# 0 polygons - 48 triangles

#
# object node_019573C0
#

v  -5.5827 1.7480 3.5906
v  -10.6378 9.5709 6.6024
v  -11.9094 6.3661 8.1260
v  -4.3386 4.8858 2.0984
v  1.9882 0.2717 -2.4370
v  0.7126 -2.9331 -0.9134
v  -12.2598 8.6968 8.0709
v  2.3268 -2.0512 -2.3740
v  -3.6063 5.0197 2.9921
v  -11.1772 6.4961 9.0157
v  -9.9055 9.7047 7.4961
v  -4.8504 1.8819 4.4803
v  1.4488 -2.8031 -0.0236
v  2.7205 0.4055 -1.5472
v  -11.5276 8.8268 8.9646
v  3.0630 -1.9213 -1.4843
# 16 vertices

vn 0.6323 0.1135 0.7664
vn 0.6324 0.1136 0.7663
vn 0.6323 0.1137 0.7663
vn 0.6323 0.1128 0.7665
vn 0.6326 0.1132 0.7661
vn 0.6320 0.1129 0.7667
vn -0.6320 -0.1127 -0.7667
vn -0.6320 -0.1130 -0.7667
vn -0.6321 -0.1130 -0.7666
vn -0.6324 -0.1132 -0.7663
vn -0.6329 -0.1120 -0.7661
vn -0.6317 -0.1138 -0.7668
# 12 vertex normals

vt 0.0200 -0.0200 0.0000
vt 0.4800 1.0200 0.0000
vt 0.0200 1.0200 0.0000
vt 0.4800 -0.0200 0.0000
vt 0.0200 0.9500 0.0000
# 5 texture coords

g node_019573C0
usemtl material_025DC38B
s off
f 80/48/136 81/49/136 82/50/136 
f 80/48/137 83/51/137 81/49/137 
f 80/48/138 84/49/138 83/51/138 
f 80/48/139 85/50/139 84/49/139 
f 82/50/140 81/50/140 86/52/140 
f 85/50/141 87/52/141 84/50/141 
f 88/48/142 89/49/142 90/50/142 
f 88/48/143 91/51/143 89/49/143 
f 88/48/144 92/49/144 91/51/144 
f 88/48/145 93/50/145 92/49/145 
f 90/50/146 89/50/146 94/52/146 
f 93/50/147 95/52/147 92/50/147 
# 0 polygons - 12 triangles

#
# object node_024111C1
#

v  -4.7756 1.8937 4.5709
v  -11.9921 6.3543 8.0394
v  -11.1102 6.5118 9.1102
v  -5.6614 1.7362 3.4961
v  1.5315 -2.7953 0.0630
v  0.6457 -2.9528 -1.0118
v  -3.5315 5.0315 3.0827
v  -9.8346 9.7205 7.5906
v  -10.7205 9.5630 6.5157
v  -4.4134 4.8740 2.0079
v  2.8031 0.4134 -1.4606
v  1.9173 0.2559 -2.5315
v  -5.7913 0.3740 4.7205
v  2.6024 -4.0079 -1.0276
v  3.8976 -5.6220 -2.3858
v  -3.4016 6.3976 1.8622
v  4.0276 -0.4094 -2.7362
v  5.5866 -1.3661 -4.4055
v  2.0906 -4.0984 -1.6457
v  3.5197 -0.5000 -3.3543
v  -14.7756 8.1339 10.9882
v  -13.0866 12.3898 8.9685
# 22 vertices

vn 0.3345 0.8529 -0.4009
vn 0.3346 0.8529 -0.4007
vn 0.3409 0.8482 -0.4053
vn -0.3411 -0.8482 0.4054
vn -0.3416 -0.8483 0.4045
vn -0.3351 -0.8531 0.3999
vn -0.3340 -0.8527 0.4017
vn 0.4545 -0.2188 0.8635
vn 0.3308 -0.4526 0.8281
vn 0.3532 -0.4200 0.8360
vn 0.7117 0.4291 0.5561
vn 0.7409 0.5816 0.3360
vn 0.7417 0.5573 0.3733
vn -0.7142 -0.4290 -0.5531
vn -0.6711 -0.6326 -0.3865
vn -0.6796 -0.6031 -0.4177
vn -0.4567 0.2209 -0.8617
vn -0.2612 0.4017 -0.8777
vn -0.2912 0.3738 -0.8806
vn 0.2792 -0.3867 0.8789
vn 0.4568 -0.2205 0.8618
vn 0.6767 0.6168 0.4021
vn 0.7143 0.4273 0.5543
vn -0.7405 -0.5712 -0.3543
vn -0.7121 -0.4306 -0.5546
vn -0.3400 0.4377 -0.8324
vn -0.4543 0.2191 -0.8635
# 27 vertex normals

vt 0.8100 0.7700 0.0000
vt 0.7200 0.7700 0.0000
vt 0.9800 0.9800 0.0000
vt 0.7800 0.9400 0.0000
vt 0.9800 0.9400 0.0000
vt 0.7200 0.9500 0.0000
vt 0.6700 0.9800 0.0000
vt 0.7300 0.7800 0.0000
vt 0.9100 0.7800 0.0000
vt 0.9800 0.7800 0.0000
# 10 texture coords

g node_024111C1
usemtl material_025DC38B
s off
f 96/53/148 97/54/148 98/54/148 
f 96/53/149 99/53/149 97/54/149 
f 96/53/150 100/54/150 99/53/150 
f 100/54/150 101/54/150 99/53/150 
f 102/53/151 103/54/151 104/54/151 
f 102/53/152 104/54/152 105/53/152 
f 102/53/153 105/53/153 106/54/153 
f 105/53/154 107/54/154 106/54/154 
f 108/55/155 100/56/155 96/57/155 
f 108/55/156 109/58/156 100/56/156 
f 108/55/157 110/59/157 109/58/157 
f 111/55/158 102/57/158 106/56/158 
f 111/55/159 106/56/159 112/58/159 
f 111/55/160 112/58/160 113/59/160 
f 108/55/161 99/57/161 101/56/161 
f 108/55/162 101/56/162 114/58/162 
f 108/55/163 114/58/163 110/59/163 
f 111/55/164 107/56/164 105/57/164 
f 111/55/165 115/58/165 107/56/165 
f 111/55/166 113/59/166 115/58/166 
f 108/60/167 98/61/167 116/62/167 
f 108/60/168 96/60/168 98/61/168 
f 111/60/169 117/62/169 103/61/169 
f 111/60/170 103/61/170 102/60/170 
f 108/60/171 116/62/171 97/61/171 
f 108/60/172 97/61/172 99/60/172 
f 111/60/173 104/61/173 117/62/173 
f 111/60/174 105/60/174 104/61/174 
# 0 polygons - 28 triangles

#
# object node_00499FC9
#

v  -5.5827 1.7480 3.5906
v  -11.9094 6.3661 8.1260
v  -10.6378 9.5709 6.6024
v  -4.3386 4.8858 2.0984
v  1.9882 0.2717 -2.4370
v  0.7126 -2.9331 -0.9134
v  -12.2598 8.6968 8.0709
v  2.3268 -2.0512 -2.3740
v  -3.6063 5.0197 2.9921
v  -9.9055 9.7047 7.4961
v  -11.1772 6.4961 9.0157
v  -4.8504 1.8819 4.4803
v  1.4488 -2.8031 -0.0236
v  2.7205 0.4055 -1.5472
v  -11.5276 8.8268 8.9646
v  3.0630 -1.9213 -1.4843
# 16 vertices

vn -0.6323 -0.1135 -0.7664
vn -0.6324 -0.1136 -0.7663
vn -0.6323 -0.1137 -0.7663
vn -0.6323 -0.1128 -0.7665
vn -0.6326 -0.1132 -0.7661
vn -0.6320 -0.1129 -0.7667
vn 0.6320 0.1127 0.7667
vn 0.6320 0.1130 0.7667
vn 0.6321 0.1130 0.7666
vn 0.6324 0.1132 0.7663
vn 0.6329 0.1120 0.7661
vn 0.6317 0.1138 0.7668
# 12 vertex normals

vt 0.0200 -0.0200 0.0000
vt 0.0200 1.0200 0.0000
vt 0.4800 1.0200 0.0000
vt 0.4800 -0.0200 0.0000
vt 0.0200 0.9500 0.0000
# 5 texture coords

g node_00499FC9
usemtl material_025DC38B
s off
f 118/63/175 119/64/175 120/65/175 
f 118/63/176 120/65/176 121/66/176 
f 118/63/177 121/66/177 122/65/177 
f 118/63/178 122/65/178 123/64/178 
f 119/64/179 124/67/179 120/64/179 
f 123/64/180 122/64/180 125/67/180 
f 126/63/181 127/64/181 128/65/181 
f 126/63/182 128/65/182 129/66/182 
f 126/63/183 129/66/183 130/65/183 
f 126/63/184 130/65/184 131/64/184 
f 127/64/185 132/67/185 128/64/185 
f 131/64/186 130/64/186 133/67/186 
# 0 polygons - 12 triangles

